{
    "port" : 8080,
    "maintenance" : false,
    "services" : {
      "this" : {
        "host" : "devops.alpha2.livspace.com",
        "port" :  80
      },
      "bouncer" : {
        "host" : "bouncer.alpha2.livspace.com",
        "port" :  80,
        "client_id" : "OMS",
        "client_secret" : "f4b708cb-f5f3-4960-8043-70d2f0ae528f"
      },
      "axle" : {
        "host" : "axle",
        "port" : 80,
        "client_id" : "StarMSFe-G4DsKI",
        "client_secret" : "2SXhLxG7prabkWl2rHQptbpIyt8XH9yg"
      }
    },
    "wkhtmltopdf" : {
      "zoom"          : 4.5,
      "dpi"           : 300,
      "footerCenter"  : "[page]/[topage]"
    }
  }
