{
    "port" : 8080,
    "maintenance" : false,
    "services" : {
      "app" : {
        "host" : "community.alpha2.livspace.com",
        "port" :  80
      },
      "bouncer" : {
        "host" : "bouncer.alpha2.livspace.com",
        "port" :  80,
        "client_id" : "COMMUNITY",
        "client_secret" : "f4b8a358-2735-11e6-b67b-9e71128dae77"
      },
      "axle" : {
        "host" : "http://axle.alpha2.livspace.com",
        "port" : 80,
        "client_id" : "StarMSFe-G4DsKI",
        "client_secret" : "2SXhLxG7prabkWl2rHQptbpIyt8XH9yg"
      },
      "grpc" : {
        "host" : "http://api.alpha2.livspace.com:8080"
      }
    },
    "segment" : {
      "key" : "bl3YCxKzh1tUErSaFfoAmiGIOJAbAqzZ"
    }
}